{
   "fossil_fuel":[
      "pollution",
      "emission",
      "carbon",
      "petroleum",
      "Greenhouse",
      "Air pollution",
      "Anthropogenic",
      "Biochar",
      "Biofuel",
      "Black carbon",
      "Blue carbon",
      "Carbon budget",
      "Emissions trading"
   ],
   "Biodiversity":[
      "ecosystem",
      "ecology",
      "climate",
      "sustainability",
      "species"
   ],
   "Waste and water":[
      "hazard",
      "drought",
      "landfill"
   ],
   "Physical_risk":[
      "flood",
      "catastrophe",
      "cyclone"
   ]
}